%YAML 1.1
%TAG !u! tag:unity3d.com,2011:
--- !u!114 &3287588991192126229
MonoBehaviour:
  m_ObjectHideFlags: 0
  m_CorrespondingSourceObject: {fileID: 0}
  m_PrefabInstance: {fileID: 0}
  m_PrefabAsset: {fileID: 0}
  m_GameObject: {fileID: 3437768193937988630}
  m_Enabled: 1
  m_EditorHideFlags: 0
  m_Script: {fileID: 11500000, guid: fe2788154aa35f54a9a4d3a923a48628, type: 3}
  m_Name: 
  m_EditorClassIdentifier: 
  table1: {fileID: 0}
  table2: {fileID: 0}
  bean: {fileID: 0}
  chair: {fileID: 0}
  fridge: {fileID: 0}
  bed1: {fileID: 0}
  bed2: {fileID: 0}
  poof: {fileID: 0}
  sofa: {fileID: 0}
--- !u!114 &-3483327504890001201
MonoBehaviour:
  m_ObjectHideFlags: 0
  m_CorrespondingSourceObject: {fileID: 0}
  m_PrefabInstance: {fileID: 0}
  m_PrefabAsset: {fileID: 0}
  m_GameObject: {fileID: 3437768193937988630}
  m_Enabled: 1
  m_EditorHideFlags: 0
  m_Script: {fileID: 11500000, guid: 94aff18cc83219c4bbc4e61586c481ad, type: 3}
  m_Name: 
  m_EditorClassIdentifier: 
--- !u!1001 &658425981031819907
PrefabInstance:
  m_ObjectHideFlags: 0
  serializedVersion: 2
  m_Modification:
    m_TransformParent: {fileID: 0}
    m_Modifications:
    - target: {fileID: 2780503302688044693, guid: 963cfd8edaf023e418b94052572e9ba8,
        type: 3}
      propertyPath: m_Name
      value: RFAIPP_Bed_2 Variant Variant
      objectReference: {fileID: 0}
    - target: {fileID: 2782565411008586319, guid: 963cfd8edaf023e418b94052572e9ba8,
        type: 3}
      propertyPath: m_LocalPosition.x
      value: -317.81
      objectReference: {fileID: 0}
    - target: {fileID: 2782565411008586319, guid: 963cfd8edaf023e418b94052572e9ba8,
        type: 3}
      propertyPath: m_LocalPosition.y
      value: 76.46691
      objectReference: {fileID: 0}
    - target: {fileID: 2782565411008586319, guid: 963cfd8edaf023e418b94052572e9ba8,
        type: 3}
      propertyPath: m_LocalPosition.z
      value: 74.85
      objectReference: {fileID: 0}
    - target: {fileID: 2782565411008586319, guid: 963cfd8edaf023e418b94052572e9ba8,
        type: 3}
      propertyPath: m_LocalRotation.x
      value: 0
      objectReference: {fileID: 0}
    - target: {fileID: 2782565411008586319, guid: 963cfd8edaf023e418b94052572e9ba8,
        type: 3}
      propertyPath: m_LocalRotation.y
      value: 0
      objectReference: {fileID: 0}
    - target: {fileID: 2782565411008586319, guid: 963cfd8edaf023e418b94052572e9ba8,
        type: 3}
      propertyPath: m_LocalRotation.z
      value: 0
      objectReference: {fileID: 0}
    - target: {fileID: 2782565411008586319, guid: 963cfd8edaf023e418b94052572e9ba8,
        type: 3}
      propertyPath: m_LocalRotation.w
      value: 1
      objectReference: {fileID: 0}
    - target: {fileID: 2782565411008586319, guid: 963cfd8edaf023e418b94052572e9ba8,
        type: 3}
      propertyPath: m_RootOrder
      value: 0
      objectReference: {fileID: 0}
    - target: {fileID: 2782565411008586319, guid: 963cfd8edaf023e418b94052572e9ba8,
        type: 3}
      propertyPath: m_LocalEulerAnglesHint.x
      value: 0
      objectReference: {fileID: 0}
    - target: {fileID: 2782565411008586319, guid: 963cfd8edaf023e418b94052572e9ba8,
        type: 3}
      propertyPath: m_LocalEulerAnglesHint.y
      value: 0
      objectReference: {fileID: 0}
    - target: {fileID: 2782565411008586319, guid: 963cfd8edaf023e418b94052572e9ba8,
        type: 3}
      propertyPath: m_LocalEulerAnglesHint.z
      value: 0
      objectReference: {fileID: 0}
    m_RemovedComponents:
    - {fileID: 1540209170583550975, guid: 963cfd8edaf023e418b94052572e9ba8, type: 3}
  m_SourcePrefab: {fileID: 100100000, guid: 963cfd8edaf023e418b94052572e9ba8, type: 3}
--- !u!1 &3437768193937988630 stripped
GameObject:
  m_CorrespondingSourceObject: {fileID: 2780503302688044693, guid: 963cfd8edaf023e418b94052572e9ba8,
    type: 3}
  m_PrefabInstance: {fileID: 658425981031819907}
  m_PrefabAsset: {fileID: 0}
