%YAML 1.1
%TAG !u! tag:unity3d.com,2011:
--- !u!54 &1658516293
Rigidbody:
  m_ObjectHideFlags: 0
  m_CorrespondingSourceObject: {fileID: 0}
  m_PrefabInstance: {fileID: 0}
  m_PrefabAsset: {fileID: 0}
  m_GameObject: {fileID: 6697066475457145486}
  serializedVersion: 2
  m_Mass: 1
  m_Drag: 0
  m_AngularDrag: 0.05
  m_UseGravity: 1
  m_IsKinematic: 0
  m_Interpolate: 0
  m_Constraints: 0
  m_CollisionDetection: 0
--- !u!114 &-3154897101597035607
MonoBehaviour:
  m_ObjectHideFlags: 0
  m_CorrespondingSourceObject: {fileID: 0}
  m_PrefabInstance: {fileID: 0}
  m_PrefabAsset: {fileID: 0}
  m_GameObject: {fileID: 6697066475457145486}
  m_Enabled: 1
  m_EditorHideFlags: 0
  m_Script: {fileID: 11500000, guid: 94aff18cc83219c4bbc4e61586c481ad, type: 3}
  m_Name: 
  m_EditorClassIdentifier: 
--- !u!114 &1658516289
MonoBehaviour:
  m_ObjectHideFlags: 0
  m_CorrespondingSourceObject: {fileID: 0}
  m_PrefabInstance: {fileID: 0}
  m_PrefabAsset: {fileID: 0}
  m_GameObject: {fileID: 6697066475457145486}
  m_Enabled: 1
  m_EditorHideFlags: 0
  m_Script: {fileID: 11500000, guid: 02d61468f8b77ae4b92c344bc9a600fb, type: 3}
  m_Name: 
  m_EditorClassIdentifier: 
  m_allowOffhandGrab: 1
  m_snapPosition: 0
  m_snapOrientation: 0
  m_snapOffset: {fileID: 0}
  m_grabPoints: []
--- !u!114 &6264084389326011324
MonoBehaviour:
  m_ObjectHideFlags: 0
  m_CorrespondingSourceObject: {fileID: 0}
  m_PrefabInstance: {fileID: 0}
  m_PrefabAsset: {fileID: 0}
  m_GameObject: {fileID: 6697066475457145486}
  m_Enabled: 1
  m_EditorHideFlags: 0
  m_Script: {fileID: 11500000, guid: 4bbb4b67428e4394ba4ce3f2528b3ec9, type: 3}
  m_Name: 
  m_EditorClassIdentifier: 
  table: {fileID: 0}
--- !u!1001 &6698556669057783706
PrefabInstance:
  m_ObjectHideFlags: 0
  serializedVersion: 2
  m_Modification:
    m_TransformParent: {fileID: 0}
    m_Modifications:
    - target: {fileID: 1917234172640532, guid: ea936102b1c382948b870e97e93d2163, type: 3}
      propertyPath: m_Name
      value: RFAIPP_Bookcase_2 (2) Variant
      objectReference: {fileID: 0}
    - target: {fileID: 4170441465906216, guid: ea936102b1c382948b870e97e93d2163, type: 3}
      propertyPath: m_LocalPosition.x
      value: -330.983
      objectReference: {fileID: 0}
    - target: {fileID: 4170441465906216, guid: ea936102b1c382948b870e97e93d2163, type: 3}
      propertyPath: m_LocalPosition.y
      value: 76.46691
      objectReference: {fileID: 0}
    - target: {fileID: 4170441465906216, guid: ea936102b1c382948b870e97e93d2163, type: 3}
      propertyPath: m_LocalPosition.z
      value: -48.412
      objectReference: {fileID: 0}
    - target: {fileID: 4170441465906216, guid: ea936102b1c382948b870e97e93d2163, type: 3}
      propertyPath: m_LocalRotation.x
      value: 0
      objectReference: {fileID: 0}
    - target: {fileID: 4170441465906216, guid: ea936102b1c382948b870e97e93d2163, type: 3}
      propertyPath: m_LocalRotation.y
      value: 0
      objectReference: {fileID: 0}
    - target: {fileID: 4170441465906216, guid: ea936102b1c382948b870e97e93d2163, type: 3}
      propertyPath: m_LocalRotation.z
      value: 0
      objectReference: {fileID: 0}
    - target: {fileID: 4170441465906216, guid: ea936102b1c382948b870e97e93d2163, type: 3}
      propertyPath: m_LocalRotation.w
      value: 1
      objectReference: {fileID: 0}
    - target: {fileID: 4170441465906216, guid: ea936102b1c382948b870e97e93d2163, type: 3}
      propertyPath: m_RootOrder
      value: 0
      objectReference: {fileID: 0}
    - target: {fileID: 4170441465906216, guid: ea936102b1c382948b870e97e93d2163, type: 3}
      propertyPath: m_LocalEulerAnglesHint.x
      value: 0
      objectReference: {fileID: 0}
    - target: {fileID: 4170441465906216, guid: ea936102b1c382948b870e97e93d2163, type: 3}
      propertyPath: m_LocalEulerAnglesHint.y
      value: 0
      objectReference: {fileID: 0}
    - target: {fileID: 4170441465906216, guid: ea936102b1c382948b870e97e93d2163, type: 3}
      propertyPath: m_LocalEulerAnglesHint.z
      value: 0
      objectReference: {fileID: 0}
    - target: {fileID: 64131856548215944, guid: ea936102b1c382948b870e97e93d2163,
        type: 3}
      propertyPath: m_Convex
      value: 1
      objectReference: {fileID: 0}
    m_RemovedComponents: []
  m_SourcePrefab: {fileID: 100100000, guid: ea936102b1c382948b870e97e93d2163, type: 3}
--- !u!1 &6697066475457145486 stripped
GameObject:
  m_CorrespondingSourceObject: {fileID: 1917234172640532, guid: ea936102b1c382948b870e97e93d2163,
    type: 3}
  m_PrefabInstance: {fileID: 6698556669057783706}
  m_PrefabAsset: {fileID: 0}
