%YAML 1.1
%TAG !u! tag:unity3d.com,2011:
--- !u!54 &1379724167
Rigidbody:
  m_ObjectHideFlags: 0
  m_CorrespondingSourceObject: {fileID: 0}
  m_PrefabInstance: {fileID: 0}
  m_PrefabAsset: {fileID: 0}
  m_GameObject: {fileID: 262810155054177528}
  serializedVersion: 2
  m_Mass: 1
  m_Drag: 0
  m_AngularDrag: 0.05
  m_UseGravity: 1
  m_IsKinematic: 0
  m_Interpolate: 0
  m_Constraints: 0
  m_CollisionDetection: 0
--- !u!114 &-8681419410063989981
MonoBehaviour:
  m_ObjectHideFlags: 0
  m_CorrespondingSourceObject: {fileID: 0}
  m_PrefabInstance: {fileID: 0}
  m_PrefabAsset: {fileID: 0}
  m_GameObject: {fileID: 262810155054177528}
  m_Enabled: 1
  m_EditorHideFlags: 0
  m_Script: {fileID: 11500000, guid: 94aff18cc83219c4bbc4e61586c481ad, type: 3}
  m_Name: 
  m_EditorClassIdentifier: 
--- !u!114 &1379724168
MonoBehaviour:
  m_ObjectHideFlags: 0
  m_CorrespondingSourceObject: {fileID: 0}
  m_PrefabInstance: {fileID: 0}
  m_PrefabAsset: {fileID: 0}
  m_GameObject: {fileID: 262810155054177528}
  m_Enabled: 1
  m_EditorHideFlags: 0
  m_Script: {fileID: 11500000, guid: 02d61468f8b77ae4b92c344bc9a600fb, type: 3}
  m_Name: 
  m_EditorClassIdentifier: 
  m_allowOffhandGrab: 1
  m_snapPosition: 0
  m_snapOrientation: 0
  m_snapOffset: {fileID: 0}
  m_grabPoints: []
--- !u!114 &1694532358834945595
MonoBehaviour:
  m_ObjectHideFlags: 0
  m_CorrespondingSourceObject: {fileID: 0}
  m_PrefabInstance: {fileID: 0}
  m_PrefabAsset: {fileID: 0}
  m_GameObject: {fileID: 262810155054177528}
  m_Enabled: 1
  m_EditorHideFlags: 0
  m_Script: {fileID: 11500000, guid: 921f736923008ac48b3ec41054b1a154, type: 3}
  m_Name: 
  m_EditorClassIdentifier: 
  table: {fileID: 0}
--- !u!1001 &261257387039081904
PrefabInstance:
  m_ObjectHideFlags: 0
  serializedVersion: 2
  m_Modification:
    m_TransformParent: {fileID: 0}
    m_Modifications:
    - target: {fileID: 1579191195130184, guid: 4ec7cbbb457362e4ca991988a91793b9, type: 3}
      propertyPath: m_Name
      value: RFAIPP_Chandelier_7 (3) Variant
      objectReference: {fileID: 0}
    - target: {fileID: 4568534766984928, guid: 4ec7cbbb457362e4ca991988a91793b9, type: 3}
      propertyPath: m_LocalPosition.x
      value: -48.54408
      objectReference: {fileID: 0}
    - target: {fileID: 4568534766984928, guid: 4ec7cbbb457362e4ca991988a91793b9, type: 3}
      propertyPath: m_LocalPosition.y
      value: 76.46691
      objectReference: {fileID: 0}
    - target: {fileID: 4568534766984928, guid: 4ec7cbbb457362e4ca991988a91793b9, type: 3}
      propertyPath: m_LocalPosition.z
      value: -46.392
      objectReference: {fileID: 0}
    - target: {fileID: 4568534766984928, guid: 4ec7cbbb457362e4ca991988a91793b9, type: 3}
      propertyPath: m_LocalRotation.x
      value: 0
      objectReference: {fileID: 0}
    - target: {fileID: 4568534766984928, guid: 4ec7cbbb457362e4ca991988a91793b9, type: 3}
      propertyPath: m_LocalRotation.y
      value: 0
      objectReference: {fileID: 0}
    - target: {fileID: 4568534766984928, guid: 4ec7cbbb457362e4ca991988a91793b9, type: 3}
      propertyPath: m_LocalRotation.z
      value: 0
      objectReference: {fileID: 0}
    - target: {fileID: 4568534766984928, guid: 4ec7cbbb457362e4ca991988a91793b9, type: 3}
      propertyPath: m_LocalRotation.w
      value: 1
      objectReference: {fileID: 0}
    - target: {fileID: 4568534766984928, guid: 4ec7cbbb457362e4ca991988a91793b9, type: 3}
      propertyPath: m_RootOrder
      value: 0
      objectReference: {fileID: 0}
    - target: {fileID: 4568534766984928, guid: 4ec7cbbb457362e4ca991988a91793b9, type: 3}
      propertyPath: m_LocalEulerAnglesHint.x
      value: 0
      objectReference: {fileID: 0}
    - target: {fileID: 4568534766984928, guid: 4ec7cbbb457362e4ca991988a91793b9, type: 3}
      propertyPath: m_LocalEulerAnglesHint.y
      value: 0
      objectReference: {fileID: 0}
    - target: {fileID: 4568534766984928, guid: 4ec7cbbb457362e4ca991988a91793b9, type: 3}
      propertyPath: m_LocalEulerAnglesHint.z
      value: 0
      objectReference: {fileID: 0}
    - target: {fileID: 64312616927652346, guid: 4ec7cbbb457362e4ca991988a91793b9,
        type: 3}
      propertyPath: m_Convex
      value: 1
      objectReference: {fileID: 0}
    - target: {fileID: 108629360401863642, guid: 4ec7cbbb457362e4ca991988a91793b9,
        type: 3}
      propertyPath: m_Color.r
      value: 0.7830189
      objectReference: {fileID: 0}
    - target: {fileID: 108629360401863642, guid: 4ec7cbbb457362e4ca991988a91793b9,
        type: 3}
      propertyPath: m_Color.g
      value: 0.7100963
      objectReference: {fileID: 0}
    - target: {fileID: 108629360401863642, guid: 4ec7cbbb457362e4ca991988a91793b9,
        type: 3}
      propertyPath: m_Color.b
      value: 0.42475083
      objectReference: {fileID: 0}
    m_RemovedComponents: []
  m_SourcePrefab: {fileID: 100100000, guid: 4ec7cbbb457362e4ca991988a91793b9, type: 3}
--- !u!1 &262810155054177528 stripped
GameObject:
  m_CorrespondingSourceObject: {fileID: 1579191195130184, guid: 4ec7cbbb457362e4ca991988a91793b9,
    type: 3}
  m_PrefabInstance: {fileID: 261257387039081904}
  m_PrefabAsset: {fileID: 0}
