%YAML 1.1
%TAG !u! tag:unity3d.com,2011:
--- !u!54 &1886805372307818762
Rigidbody:
  m_ObjectHideFlags: 0
  m_CorrespondingSourceObject: {fileID: 0}
  m_PrefabInstance: {fileID: 0}
  m_PrefabAsset: {fileID: 0}
  m_GameObject: {fileID: 6976396818845157184}
  serializedVersion: 2
  m_Mass: 1
  m_Drag: 0
  m_AngularDrag: 0.05
  m_UseGravity: 1
  m_IsKinematic: 0
  m_Interpolate: 0
  m_Constraints: 0
  m_CollisionDetection: 0
--- !u!64 &2419459146643042361
MeshCollider:
  m_ObjectHideFlags: 0
  m_CorrespondingSourceObject: {fileID: 0}
  m_PrefabInstance: {fileID: 0}
  m_PrefabAsset: {fileID: 0}
  m_GameObject: {fileID: 6976396818845157184}
  m_Material: {fileID: 0}
  m_IsTrigger: 0
  m_Enabled: 1
  serializedVersion: 3
  m_Convex: 1
  m_CookingOptions: 14
  m_Mesh: {fileID: 0}
--- !u!114 &634663316146139750
MonoBehaviour:
  m_ObjectHideFlags: 0
  m_CorrespondingSourceObject: {fileID: 0}
  m_PrefabInstance: {fileID: 0}
  m_PrefabAsset: {fileID: 0}
  m_GameObject: {fileID: 6976396818845157184}
  m_Enabled: 1
  m_EditorHideFlags: 0
  m_Script: {fileID: 11500000, guid: 02d61468f8b77ae4b92c344bc9a600fb, type: 3}
  m_Name: 
  m_EditorClassIdentifier: 
  m_allowOffhandGrab: 1
  m_snapPosition: 0
  m_snapOrientation: 0
  m_snapOffset: {fileID: 0}
  m_grabPoints: []
--- !u!114 &6510395741265566372
MonoBehaviour:
  m_ObjectHideFlags: 0
  m_CorrespondingSourceObject: {fileID: 0}
  m_PrefabInstance: {fileID: 0}
  m_PrefabAsset: {fileID: 0}
  m_GameObject: {fileID: 6976396818845157184}
  m_Enabled: 1
  m_EditorHideFlags: 0
  m_Script: {fileID: 11500000, guid: 32ec4aa5d8e3246488f5d05da5377e75, type: 3}
  m_Name: 
  m_EditorClassIdentifier: 
  sofa: {fileID: 0}
--- !u!114 &6169568906920405396
MonoBehaviour:
  m_ObjectHideFlags: 0
  m_CorrespondingSourceObject: {fileID: 0}
  m_PrefabInstance: {fileID: 0}
  m_PrefabAsset: {fileID: 0}
  m_GameObject: {fileID: 6976396818845157184}
  m_Enabled: 1
  m_EditorHideFlags: 0
  m_Script: {fileID: 11500000, guid: 94aff18cc83219c4bbc4e61586c481ad, type: 3}
  m_Name: 
  m_EditorClassIdentifier: 
--- !u!1001 &6976396818845254124
PrefabInstance:
  m_ObjectHideFlags: 0
  serializedVersion: 2
  m_Modification:
    m_TransformParent: {fileID: 0}
    m_Modifications:
    - target: {fileID: 100012, guid: 272a1dd3343458d45888ea8668d6e2ea, type: 3}
      propertyPath: m_Name
      value: sofa_3 Variant
      objectReference: {fileID: 0}
    - target: {fileID: 400012, guid: 272a1dd3343458d45888ea8668d6e2ea, type: 3}
      propertyPath: m_LocalPosition.x
      value: -328.091
      objectReference: {fileID: 0}
    - target: {fileID: 400012, guid: 272a1dd3343458d45888ea8668d6e2ea, type: 3}
      propertyPath: m_LocalPosition.y
      value: 76.41636
      objectReference: {fileID: 0}
    - target: {fileID: 400012, guid: 272a1dd3343458d45888ea8668d6e2ea, type: 3}
      propertyPath: m_LocalPosition.z
      value: 78.246
      objectReference: {fileID: 0}
    - target: {fileID: 400012, guid: 272a1dd3343458d45888ea8668d6e2ea, type: 3}
      propertyPath: m_LocalRotation.x
      value: -0
      objectReference: {fileID: 0}
    - target: {fileID: 400012, guid: 272a1dd3343458d45888ea8668d6e2ea, type: 3}
      propertyPath: m_LocalRotation.y
      value: -0.7071068
      objectReference: {fileID: 0}
    - target: {fileID: 400012, guid: 272a1dd3343458d45888ea8668d6e2ea, type: 3}
      propertyPath: m_LocalRotation.z
      value: -0.7071068
      objectReference: {fileID: 0}
    - target: {fileID: 400012, guid: 272a1dd3343458d45888ea8668d6e2ea, type: 3}
      propertyPath: m_LocalRotation.w
      value: 0
      objectReference: {fileID: 0}
    - target: {fileID: 400012, guid: 272a1dd3343458d45888ea8668d6e2ea, type: 3}
      propertyPath: m_RootOrder
      value: 0
      objectReference: {fileID: 0}
    - target: {fileID: 400012, guid: 272a1dd3343458d45888ea8668d6e2ea, type: 3}
      propertyPath: m_LocalEulerAnglesHint.x
      value: -90.00001
      objectReference: {fileID: 0}
    - target: {fileID: 400012, guid: 272a1dd3343458d45888ea8668d6e2ea, type: 3}
      propertyPath: m_LocalEulerAnglesHint.y
      value: 0
      objectReference: {fileID: 0}
    - target: {fileID: 400012, guid: 272a1dd3343458d45888ea8668d6e2ea, type: 3}
      propertyPath: m_LocalEulerAnglesHint.z
      value: -180
      objectReference: {fileID: 0}
    - target: {fileID: 2300012, guid: 272a1dd3343458d45888ea8668d6e2ea, type: 3}
      propertyPath: m_Materials.Array.data[0]
      value: 
      objectReference: {fileID: 2100000, guid: 5f864c3ce5bb82b4faa6e17ce4167d2a, type: 2}
    - target: {fileID: 2300014, guid: 272a1dd3343458d45888ea8668d6e2ea, type: 3}
      propertyPath: m_Materials.Array.data[0]
      value: 
      objectReference: {fileID: 2100000, guid: 5f864c3ce5bb82b4faa6e17ce4167d2a, type: 2}
    - target: {fileID: 2300008, guid: 272a1dd3343458d45888ea8668d6e2ea, type: 3}
      propertyPath: m_Materials.Array.data[0]
      value: 
      objectReference: {fileID: 2100000, guid: 5f864c3ce5bb82b4faa6e17ce4167d2a, type: 2}
    - target: {fileID: 2300010, guid: 272a1dd3343458d45888ea8668d6e2ea, type: 3}
      propertyPath: m_Materials.Array.data[0]
      value: 
      objectReference: {fileID: 2100000, guid: 5f864c3ce5bb82b4faa6e17ce4167d2a, type: 2}
    - target: {fileID: 2300004, guid: 272a1dd3343458d45888ea8668d6e2ea, type: 3}
      propertyPath: m_Materials.Array.data[0]
      value: 
      objectReference: {fileID: 2100000, guid: 5f864c3ce5bb82b4faa6e17ce4167d2a, type: 2}
    - target: {fileID: 2300006, guid: 272a1dd3343458d45888ea8668d6e2ea, type: 3}
      propertyPath: m_Materials.Array.data[0]
      value: 
      objectReference: {fileID: 2100000, guid: 5f864c3ce5bb82b4faa6e17ce4167d2a, type: 2}
    - target: {fileID: 2300002, guid: 272a1dd3343458d45888ea8668d6e2ea, type: 3}
      propertyPath: m_Materials.Array.data[0]
      value: 
      objectReference: {fileID: 2100000, guid: 5f864c3ce5bb82b4faa6e17ce4167d2a, type: 2}
    m_RemovedComponents: []
  m_SourcePrefab: {fileID: 100100000, guid: 272a1dd3343458d45888ea8668d6e2ea, type: 3}
--- !u!1 &6976396818845157184 stripped
GameObject:
  m_CorrespondingSourceObject: {fileID: 100012, guid: 272a1dd3343458d45888ea8668d6e2ea,
    type: 3}
  m_PrefabInstance: {fileID: 6976396818845254124}
  m_PrefabAsset: {fileID: 0}
